<?xml version="1.0" standalone="no"?>
<!DOCTYPE svg PUBLIC "-//W3C//DTD SVG 20010904//EN"
 "http://www.w3.org/TR/2001/REC-SVG-20010904/DTD/svg10.dtd">
<svg version="1.0" xmlns="http://www.w3.org/2000/svg"
 width="800.000000pt" height="800.000000pt" viewBox="0 0 800.000000 800.000000"
 preserveAspectRatio="xMidYMid meet">
<metadata>
Created by potrace 1.11, written by Peter Selinger 2001-2013
</metadata>
<g transform="translate(0.000000,800.000000) scale(0.100000,-0.100000)"
fill="#000000" stroke="none">
<path d="M1300 6868 c0 -14 -3 -33 -6 -41 -4 -11 9 -19 53 -32 116 -34 214
-110 317 -248 85 -116 124 -207 266 -629 122 -366 253 -748 355 -1038 18 -52
129 -369 245 -705 116 -335 231 -666 255 -735 24 -69 82 -235 128 -370 47
-135 130 -375 185 -535 55 -159 124 -355 152 -435 61 -174 159 -515 167 -580
6 -55 -20 -199 -46 -250 -24 -46 -94 -89 -159 -97 l-52 -6 0 -43 0 -44 844 0
844 0 3 44 4 44 -52 12 c-61 13 -155 71 -200 124 -39 43 -37 41 -217 406
l-139 285 -654 1955 c-360 1075 -677 2036 -706 2135 -50 175 -51 184 -52 310
0 121 2 134 27 185 49 100 164 188 291 221 46 13 47 14 47 51 l0 38 -950 2
-950 3 0 -27z"/>
<path d="M5340 6855 c0 -33 2 -35 33 -35 18 0 58 -7 88 -16 198 -59 310 -245
279 -466 -19 -130 -141 -507 -419 -1287 -150 -421 -421 -1181 -602 -1690 -181
-509 -334 -936 -339 -949 -8 -19 13 -77 125 -338 74 -174 139 -323 143 -331 7
-11 15 1 30 44 95 258 239 648 401 1083 106 283 238 637 293 785 55 149 162
437 238 640 76 204 168 451 205 550 36 99 124 335 195 525 71 190 158 424 193
520 115 312 241 578 330 696 58 77 186 163 317 214 42 17 50 26 50 63 l0 27
-780 0 -780 0 0 -35z"/>
</g>
</svg>
